<?xml version="1.0" encoding="utf-8"?>
<!-- Generator: Adobe Illustrator 23.0.1, SVG Export Plug-In . SVG Version: 6.00 Build 0)  -->
<svg version="1.1" id="Camada_1" xmlns="http://www.w3.org/2000/svg" xmlns:xlink="http://www.w3.org/1999/xlink" x="0px" y="0px"
	 viewBox="0 0 40 40" style="enable-background:new 0 0 40 40;" xml:space="preserve">
<style type="text/css">
	.st0{fill:#FFFFFF;}
</style>
<g>
	<g>
		<path class="st0" d="M20,0C8.95,0,0,8.95,0,20s8.95,20,20,20s20-8.95,20-20C40.08,8.95,31.05,0,20,0z M25,20.73h-3.23
			c0,5.24,0,11.61,0,11.61h-4.84c0,0,0-6.37,0-11.61h-2.26v-4.11h2.26v-2.66c0-1.94,0.89-4.84,4.84-4.84h3.55v3.95
			c0,0-2.18,0-2.58,0c-0.4,0-0.97,0.24-0.97,1.13v2.42h3.71L25,20.73z"/>
	</g>
</g>
</svg>
